%YAML 1.1
%TAG !u! tag:unity3d.com,2011:
--- !u!1001 &3266499753978680470
PrefabInstance:
  m_ObjectHideFlags: 0
  serializedVersion: 2
  m_Modification:
    m_TransformParent: {fileID: 0}
    m_Modifications:
    - target: {fileID: 1651703703704797957, guid: 5d7fc399d445bbf4bb21efabd489baf7,
        type: 3}
      propertyPath: m_Name
      value: Cat
      objectReference: {fileID: 0}
    - target: {fileID: 7539360785897842359, guid: 5d7fc399d445bbf4bb21efabd489baf7,
        type: 3}
      propertyPath: m_LocalPosition.x
      value: 0
      objectReference: {fileID: 0}
    - target: {fileID: 7539360785897842359, guid: 5d7fc399d445bbf4bb21efabd489baf7,
        type: 3}
      propertyPath: m_LocalPosition.y
      value: 0
      objectReference: {fileID: 0}
    - target: {fileID: 7539360785897842359, guid: 5d7fc399d445bbf4bb21efabd489baf7,
        type: 3}
      propertyPath: m_LocalPosition.z
      value: 0
      objectReference: {fileID: 0}
    - target: {fileID: 7539360785897842359, guid: 5d7fc399d445bbf4bb21efabd489baf7,
        type: 3}
      propertyPath: m_LocalRotation.x
      value: 0
      objectReference: {fileID: 0}
    - target: {fileID: 7539360785897842359, guid: 5d7fc399d445bbf4bb21efabd489baf7,
        type: 3}
      propertyPath: m_LocalRotation.y
      value: 0
      objectReference: {fileID: 0}
    - target: {fileID: 7539360785897842359, guid: 5d7fc399d445bbf4bb21efabd489baf7,
        type: 3}
      propertyPath: m_LocalRotation.z
      value: 0
      objectReference: {fileID: 0}
    - target: {fileID: 7539360785897842359, guid: 5d7fc399d445bbf4bb21efabd489baf7,
        type: 3}
      propertyPath: m_LocalRotation.w
      value: 1
      objectReference: {fileID: 0}
    - target: {fileID: 7539360785897842359, guid: 5d7fc399d445bbf4bb21efabd489baf7,
        type: 3}
      propertyPath: m_RootOrder
      value: 0
      objectReference: {fileID: 0}
    - target: {fileID: 7539360785897842359, guid: 5d7fc399d445bbf4bb21efabd489baf7,
        type: 3}
      propertyPath: m_LocalEulerAnglesHint.x
      value: 0
      objectReference: {fileID: 0}
    - target: {fileID: 7539360785897842359, guid: 5d7fc399d445bbf4bb21efabd489baf7,
        type: 3}
      propertyPath: m_LocalEulerAnglesHint.y
      value: 0
      objectReference: {fileID: 0}
    - target: {fileID: 7539360785897842359, guid: 5d7fc399d445bbf4bb21efabd489baf7,
        type: 3}
      propertyPath: m_LocalEulerAnglesHint.z
      value: 0
      objectReference: {fileID: 0}
    - target: {fileID: 8275227744645921598, guid: 5d7fc399d445bbf4bb21efabd489baf7,
        type: 3}
      propertyPath: _playerIndex
      value: 0
      objectReference: {fileID: 0}
    - target: {fileID: 7681299894446179166, guid: 5d7fc399d445bbf4bb21efabd489baf7,
        type: 3}
      propertyPath: m_Color.r
      value: 0.5921569
      objectReference: {fileID: 0}
    - target: {fileID: 7681299894446179166, guid: 5d7fc399d445bbf4bb21efabd489baf7,
        type: 3}
      propertyPath: m_Color.g
      value: 0.8078432
      objectReference: {fileID: 0}
    - target: {fileID: 7681299894446179166, guid: 5d7fc399d445bbf4bb21efabd489baf7,
        type: 3}
      propertyPath: m_Color.b
      value: 0.70980394
      objectReference: {fileID: 0}
    m_RemovedComponents: []
  m_SourcePrefab: {fileID: 100100000, guid: 5d7fc399d445bbf4bb21efabd489baf7, type: 3}
